{
  "categories": {
    "href": "https://api.spotify.com/v1/browse/categories?country=US&amp;offset=0&amp;limit=30",
    "items": [
      {
        "href": "https://api.spotify.com/v1/browse/categories/toplists",
        "icons": [
          {
            "height": 275,
            "url": "https://t.scdn.co/media/derived/toplists_11160599e6a04ac5d6f2757f5511778f_0_0_275_275.jpg",
            "width": 275
          }
        ],
        "id": "toplists",
        "name": "Top Lists"
      },
      {
        "href": "https://api.spotify.com/v1/browse/categories/hiphop",
        "icons": [
          {
            "height": 274,
            "url": "https://t.scdn.co/media/original/hip-274_0a661854d61e29eace5fe63f73495e68_274x274.jpg",
            "width": 274
          }
        ],
        "id": "hiphop",
        "name": "Hip-Hop"
      },
      {
        "href": "https://api.spotify.com/v1/browse/categories/pop",
        "icons": [
          {
            "height": 274,
            "url": "https://t.scdn.co/media/derived/pop-274x274_447148649685019f5e2a03a39e78ba52_0_0_274_274.jpg",
            "width": 274
          }
        ],
        "id": "pop",
        "name": "Pop"
      },
      {
        "href": "https://api.spotify.com/v1/browse/categories/country",
        "icons": [
          {
            "height": null,
            "url": "https://t.scdn.co/images/a2e0ebe2ebed4566ba1d8236b869241f.jpeg",
            "width": null
          }
        ],
        "id": "country",
        "name": "Country"
      },
      {
        "href": "https://api.spotify.com/v1/browse/categories/rock",
        "icons": [
          {
            "height": 274,
            "url": "https://t.scdn.co/media/derived/rock_9ce79e0a4ef901bbd10494f5b855d3cc_0_0_274_274.jpg",
            "width": 274
          }
        ],
        "id": "rock",
        "name": "Rock"
      },
      {
        "href": "https://api.spotify.com/v1/browse/categories/latin",
        "icons": [
          {
            "height": null,
            "url": "https://t.scdn.co/images/26a60378-a374-4cd7-b894-28efa5e154cb.jpg",
            "width": null
          }
        ],
        "id": "latin",
        "name": "Latin"
      },
      {
        "href": "https://api.spotify.com/v1/browse/categories/workout",
        "icons": [
          {
            "height": null,
            "url": "https://t.scdn.co/media/links/workout-274x274.jpg",
            "width": null
          }
        ],
        "id": "workout",
        "name": "Workout"
      },
      {
        "href": "https://api.spotify.com/v1/browse/categories/netflix",
        "icons": [
          {
            "height": null,
            "url": "https://t.scdn.co/images/1a416fb97f5647858c7f09c9cb6e7301",
            "width": null
          }
        ],
        "id": "netflix",
        "name": "Netflix"
      },
      {
        "href": "https://api.spotify.com/v1/browse/categories/rnb",
        "icons": [
          {
            "height": 274,
            "url": "https://t.scdn.co/media/derived/r-b-274x274_fd56efa72f4f63764b011b68121581d8_0_0_274_274.jpg",
            "width": 274
          }
        ],
        "id": "rnb",
        "name": "R&amp;B"
      },
      {
        "href": "https://api.spotify.com/v1/browse/categories/wellness",
        "icons": [
          {
            "height": null,
            "url": "https://t.scdn.co/images/3710b68657574bc79df14bd74629e5ac",
            "width": null
          }
        ],
        "id": "wellness",
        "name": "Wellness"
      },
      {
        "href": "https://api.spotify.com/v1/browse/categories/mood",
        "icons": [
          {
            "height": 274,
            "url": "https://t.scdn.co/media/original/mood-274x274_976986a31ac8c49794cbdc7246fd5ad7_274x274.jpg",
            "width": 274
          }
        ],
        "id": "mood",
        "name": "Mood"
      },
      {
        "href": "https://api.spotify.com/v1/browse/categories/indie_alt",
        "icons": [
          {
            "height": null,
            "url": "https://t.scdn.co/images/fe06caf056474bc58862591cd60b57fc.jpeg",
            "width": null
          }
        ],
        "id": "indie_alt",
        "name": "Indie"
      },
      {
        "href": "https://api.spotify.com/v1/browse/categories/sleep",
        "icons": [
          {
            "height": 274,
            "url": "https://t.scdn.co/media/derived/sleep-274x274_0d4f836af8fab7bf31526968073e671c_0_0_274_274.jpg",
            "width": 274
          }
        ],
        "id": "sleep",
        "name": "Sleep"
      },
      {
        "href": "https://api.spotify.com/v1/browse/categories/regional_mexican",
        "icons": [
          {
            "height": null,
            "url": "https://t.scdn.co/images/c765fa1ce6994fce8796d2d0d93c1e61.jpeg",
            "width": null
          }
        ],
        "id": "regional_mexican",
        "name": "Regional Mexican"
      },
      {
        "href": "https://api.spotify.com/v1/browse/categories/frequency",
        "icons": [
          {
            "height": null,
            "url": "https://t.scdn.co/images/cad629fb65a14de4beddb38510e27cb1",
            "width": null
          }
        ],
        "id": "frequency",
        "name": "Frequency"
      },
      {
        "href": "https://api.spotify.com/v1/browse/categories/edm_dance",
        "icons": [
          {
            "height": 274,
            "url": "https://t.scdn.co/media/derived/edm-274x274_0ef612604200a9c14995432994455a6d_0_0_274_274.jpg",
            "width": 274
          }
        ],
        "id": "edm_dance",
        "name": "Dance/Electronic"
      },
      {
        "href": "https://api.spotify.com/v1/browse/categories/inspirational",
        "icons": [
          {
            "height": null,
            "url": "https://t.scdn.co/images/e023f691436b4518aec8c3b18973268e",
            "width": null
          }
        ],
        "id": "inspirational",
        "name": "Christian &amp; Gospel"
      },
      {
        "href": "https://api.spotify.com/v1/browse/categories/chill",
        "icons": [
          {
            "height": 274,
            "url": "https://t.scdn.co/media/derived/chill-274x274_4c46374f007813dd10b37e8d8fd35b4b_0_0_274_274.jpg",
            "width": 274
          }
        ],
        "id": "chill",
        "name": "Chill"
      },
      {
        "href": "https://api.spotify.com/v1/browse/categories/kids_family",
        "icons": [
          {
            "height": null,
            "url": "https://t.scdn.co/images/664bb84f7a774e1eadb7c227aed98f3c",
            "width": null
          }
        ],
        "id": "kids_family",
        "name": "Kids &amp; Family"
      },
      {
        "href": "https://api.spotify.com/v1/browse/categories/party",
        "icons": [
          {
            "height": null,
            "url": "https://t.scdn.co/images/7ee6530d5b3c4acc9a0957046bf11d63",
            "width": null
          }
        ],
        "id": "party",
        "name": "Party"
      },
      {
        "href": "https://api.spotify.com/v1/browse/categories/decades",
        "icons": [
          {
            "height": null,
            "url": "https://t.scdn.co/images/b611cf5145764c64b80e91ccd5f357c8",
            "width": null
          }
        ],
        "id": "decades",
        "name": "Decades"
      },
      {
        "href": "https://api.spotify.com/v1/browse/categories/fresh_finds",
        "icons": [
          {
            "height": null,
            "url": "https://t.scdn.co/images/16e40e64d2a74fa8a0a020d456e6541d.jpeg",
            "width": null
          }
        ],
        "id": "fresh_finds",
        "name": "Fresh Finds"
      },
      {
        "href": "https://api.spotify.com/v1/browse/categories/student",
        "icons": [
          {
            "height": null,
            "url": "https://t.scdn.co/images/67a216e1e07144f889d366fed5c325bc.jpeg",
            "width": null
          }
        ],
        "id": "student",
        "name": "Student"
      },
      {
        "href": "https://api.spotify.com/v1/browse/categories/focus",
        "icons": [
          {
            "height": 274,
            "url": "https://t.scdn.co/media/original/genre-images-square-274x274_5e50d72b846a198fcd2ca9b3aef5f0c8_274x274.jpg",
            "width": 274
          }
        ],
        "id": "focus",
        "name": "Focus"
      },
      {
        "href": "https://api.spotify.com/v1/browse/categories/equal",
        "icons": [
          {
            "height": null,
            "url": "https://t.scdn.co/images/084155aeaa724ea1bd393a017d67b709",
            "width": null
          }
        ],
        "id": "equal",
        "name": "EQUAL"
      },
      {
        "href": "https://api.spotify.com/v1/browse/categories/gaming",
        "icons": [
          {
            "height": null,
            "url": "https://t.scdn.co/images/0d39395309ba47838ef12ce987f19d16.jpeg",
            "width": null
          }
        ],
        "id": "gaming",
        "name": "Gaming"
      },
      {
        "href": "https://api.spotify.com/v1/browse/categories/roots",
        "icons": [
          {
            "height": null,
            "url": "https://t.scdn.co/images/7fe0f2c9c91f45a3b6bae49d298201a4.jpeg",
            "width": null
          }
        ],
        "id": "roots",
        "name": "Folk &amp; Acoustic"
      },
      {
        "href": "https://api.spotify.com/v1/browse/categories/kpop",
        "icons": [
          {
            "height": null,
            "url": "https://t.scdn.co/images/2078afd91e4d431eb19efc5bee5ab131.jpeg",
            "width": null
          }
        ],
        "id": "kpop",
        "name": "K-Pop"
      },
      {
        "href": "https://api.spotify.com/v1/browse/categories/instrumental",
        "icons": [
          {
            "height": null,
            "url": "https://t.scdn.co/images/384c2b595a1648aa801837ff99961188",
            "width": null
          }
        ],
        "id": "instrumental",
        "name": "Instrumental"
      },
      {
        "href": "https://api.spotify.com/v1/browse/categories/ambient",
        "icons": [
          {
            "height": null,
            "url": "https://t.scdn.co/images/9210c5a26e6a4b4da2c3ea8e5f87fff8",
            "width": null
          }
        ],
        "id": "ambient",
        "name": "Ambient"
      }
    ],
    "limit": 30,
    "next": "https://api.spotify.com/v1/browse/categories?country=US&amp;offset=30&amp;limit=30",
    "offset": 0,
    "previous": null,
    "total": 58
  }
}